^G:\ELTE\SEMESTER 7\COMPUTER GRAPHIC\MYPRAC\PRACTICE\PRACTICE\DEBUG\GCAMERA.OBJ|G:\ELTE\SEMESTER 7\COMPUTER GRAPHIC\MYPRAC\PRACTICE\PRACTICE\DEBUG\GSHADERPROGRAM.OBJ|G:\ELTE\SEMESTER 7\COMPUTER GRAPHIC\MYPRAC\PRACTICE\PRACTICE\DEBUG\GVERTEXBUFFER.OBJ|G:\ELTE\SEMESTER 7\COMPUTER GRAPHIC\MYPRAC\PRACTICE\PRACTICE\DEBUG\MAIN.OBJ|G:\ELTE\SEMESTER 7\COMPUTER GRAPHIC\MYPRAC\PRACTICE\PRACTICE\DEBUG\MESH_OGL3.OBJ|G:\ELTE\SEMESTER 7\COMPUTER GRAPHIC\MYPRAC\PRACTICE\PRACTICE\DEBUG\MYAPP.OBJ|G:\ELTE\SEMESTER 7\COMPUTER GRAPHIC\MYPRAC\PRACTICE\PRACTICE\DEBUG\OBJPARSER_OGL3.OBJ
G:\ELTE\SEMESTER 7\COMPUTER GRAPHIC\MYPRAC\PRACTICE\DEBUG\PRACTICE.EXE
G:\ELTE\SEMESTER 7\COMPUTER GRAPHIC\MYPRAC\PRACTICE\DEBUG\PRACTICE.ILK
G:\ELTE\SEMESTER 7\COMPUTER GRAPHIC\MYPRAC\PRACTICE\DEBUG\PRACTICE.PDB
