^G:\ELTE\SEMESTER 7\COMPUTER GRAPHIC\MYPRAC\PRACTICE\PRACTICE\DEBUG\GCAMERA.OBJ|G:\ELTE\SEMESTER 7\COMPUTER GRAPHIC\MYPRAC\PRACTICE\PRACTICE\DEBUG\GSHADERPROGRAM.OBJ|G:\ELTE\SEMESTER 7\COMPUTER GRAPHIC\MYPRAC\PRACTICE\PRACTICE\DEBUG\GVERTEXBUFFER.OBJ|G:\ELTE\SEMESTER 7\COMPUTER GRAPHIC\MYPRAC\PRACTICE\PRACTICE\DEBUG\MAIN.OBJ|G:\ELTE\SEMESTER 7\COMPUTER GRAPHIC\MYPRAC\PRACTICE\PRACTICE\DEBUG\MESH_OGL3.OBJ|G:\ELTE\SEMESTER 7\COMPUTER GRAPHIC\MYPRAC\PRACTICE\PRACTICE\DEBUG\MYAPP.OBJ|G:\ELTE\SEMESTER 7\COMPUTER GRAPHIC\MYPRAC\PRACTICE\PRACTICE\DEBUG\OBJPARSER_OGL3.OBJ
T:\OGLPACK\LIB\X86\SDL2.LIB
T:\OGLPACK\LIB\X86\SDL2MAIN.LIB
T:\OGLPACK\LIB\X86\SDL2_IMAGE.LIB
T:\OGLPACK\LIB\X86\GLEW32.LIB
C:\PROGRAM FILES (X86)\WINDOWS KITS\10\LIB\10.0.18362.0\UM\X86\GLU32.LIB
C:\PROGRAM FILES (X86)\WINDOWS KITS\10\LIB\10.0.18362.0\UM\X86\OPENGL32.LIB
C:\PROGRAM FILES (X86)\WINDOWS KITS\10\LIB\10.0.18362.0\UM\X86\KERNEL32.LIB
C:\PROGRAM FILES (X86)\WINDOWS KITS\10\LIB\10.0.18362.0\UM\X86\USER32.LIB
C:\PROGRAM FILES (X86)\WINDOWS KITS\10\LIB\10.0.18362.0\UM\X86\GDI32.LIB
C:\PROGRAM FILES (X86)\WINDOWS KITS\10\LIB\10.0.18362.0\UM\X86\WINSPOOL.LIB
C:\PROGRAM FILES (X86)\WINDOWS KITS\10\LIB\10.0.18362.0\UM\X86\COMDLG32.LIB
C:\PROGRAM FILES (X86)\WINDOWS KITS\10\LIB\10.0.18362.0\UM\X86\ADVAPI32.LIB
C:\PROGRAM FILES (X86)\WINDOWS KITS\10\LIB\10.0.18362.0\UM\X86\SHELL32.LIB
C:\PROGRAM FILES (X86)\WINDOWS KITS\10\LIB\10.0.18362.0\UM\X86\OLE32.LIB
C:\PROGRAM FILES (X86)\WINDOWS KITS\10\LIB\10.0.18362.0\UM\X86\OLEAUT32.LIB
C:\PROGRAM FILES (X86)\WINDOWS KITS\10\LIB\10.0.18362.0\UM\X86\UUID.LIB
C:\PROGRAM FILES (X86)\WINDOWS KITS\10\LIB\10.0.18362.0\UM\X86\ODBC32.LIB
C:\PROGRAM FILES (X86)\WINDOWS KITS\10\LIB\10.0.18362.0\UM\X86\ODBCCP32.LIB
G:\ELTE\SEMESTER 7\COMPUTER GRAPHIC\MYPRAC\PRACTICE\PRACTICE\DEBUG\GCAMERA.OBJ
G:\ELTE\SEMESTER 7\COMPUTER GRAPHIC\MYPRAC\PRACTICE\PRACTICE\DEBUG\GSHADERPROGRAM.OBJ
G:\ELTE\SEMESTER 7\COMPUTER GRAPHIC\MYPRAC\PRACTICE\PRACTICE\DEBUG\GVERTEXBUFFER.OBJ
G:\ELTE\SEMESTER 7\COMPUTER GRAPHIC\MYPRAC\PRACTICE\PRACTICE\DEBUG\MAIN.OBJ
G:\ELTE\SEMESTER 7\COMPUTER GRAPHIC\MYPRAC\PRACTICE\PRACTICE\DEBUG\MESH_OGL3.OBJ
G:\ELTE\SEMESTER 7\COMPUTER GRAPHIC\MYPRAC\PRACTICE\PRACTICE\DEBUG\MYAPP.OBJ
G:\ELTE\SEMESTER 7\COMPUTER GRAPHIC\MYPRAC\PRACTICE\PRACTICE\DEBUG\OBJPARSER_OGL3.OBJ
C:\WINDOWS\SYSTEM32\TZRES.DLL
C:\WINDOWS\GLOBALIZATION\SORTING\SORTDEFAULT.NLS
C:\PROGRAM FILES (X86)\MICROSOFT VISUAL STUDIO\2019\COMMUNITY\VC\TOOLS\MSVC\14.28.29333\LIB\X86\MSVCPRTD.LIB
C:\PROGRAM FILES (X86)\MICROSOFT VISUAL STUDIO\2019\COMMUNITY\VC\TOOLS\MSVC\14.28.29333\LIB\X86\MSVCRTD.LIB
C:\PROGRAM FILES (X86)\MICROSOFT VISUAL STUDIO\2019\COMMUNITY\VC\TOOLS\MSVC\14.28.29333\LIB\X86\OLDNAMES.LIB
C:\PROGRAM FILES (X86)\MICROSOFT VISUAL STUDIO\2019\COMMUNITY\VC\TOOLS\MSVC\14.28.29333\LIB\X86\VCRUNTIMED.LIB
C:\PROGRAM FILES (X86)\WINDOWS KITS\10\LIB\10.0.18362.0\UCRT\X86\UCRTD.LIB
